^G:\FOLDER KUBY\STUDIA\ROK II SEM.2\PROGRAMOWANIE WIZUALNE\LAB\LAB2I3\LAB2\LAB2\LAB2.CPP
G:\FOLDER KUBY\STUDIA\ROK II SEM.2\PROGRAMOWANIE WIZUALNE\LAB\LAB2I3\LAB2\LAB2\DEBUG\VC142.PDB
G:\FOLDER KUBY\STUDIA\ROK II SEM.2\PROGRAMOWANIE WIZUALNE\LAB\LAB2I3\LAB2\LAB2\DEBUG\VC142.IDB
G:\FOLDER KUBY\STUDIA\ROK II SEM.2\PROGRAMOWANIE WIZUALNE\LAB\LAB2I3\LAB2\LAB2\DEBUG\LAB2.OBJ
